site,org_name,target_name,hum_count,nat_count,non_count
alec_mairs,20160103_091124_0b0d_visual.tif,alec_mairs$Non$12.png,0,0,16
alec_mairs,20160103_091125_0b0d_visual.tif,alec_mairs$Non$13.png,0,0,16
alec_mairs,20160119_031420_0c72_visual.tif,alec_mairs$NatNon$17.png,0,5,11
alec_mairs,20160128_231550_0c53_visual.tif,alec_mairs$Non$21.png,0,0,16
alec_mairs,20160305_083330_0c72_visual.tif,alec_mairs$Non$25.png,0,0,16
alec_mairs,20160308_071650_0c70_visual.tif,alec_mairs$Non$29.png,0,0,16
alec_mairs,20160308_071651_0c70_visual.tif,alec_mairs$Non$30.png,0,0,16
alec_mairs,20160312_054540_0c72_visual.tif,alec_mairs$Non$34.png,0,0,16
alec_mairs,20160518_014742_0b0a_visual.tif,alec_mairs$HumNon$43.png,1,0,15
alec_mairs,20160708_053342_0c53_visual.tif,alec_mairs$Non$47.png,0,0,16
alec_mairs,20160713_051837_0d06_visual.tif,alec_mairs$Non$48.png,0,0,16
alec_mairs,20160715_024336_0c64_visual.tif,alec_mairs$Non$50.png,0,0,16
alec_mairs,20160725_071935_0c72_visual.tif,alec_mairs$Non$52.png,0,0,16
alec_mairs,20160830_011255_0e19_visual.tif,alec_mairs$Non$54.png,0,0,16
alec_mairs,20160830_011515_0e26_visual.tif,alec_mairs$Non$59.png,0,0,16
alec_mairs,20160917_025856_0c65_visual.tif,alec_mairs$Non$63.png,0,0,16
alec_mairs,20160928_221552_0c81_visual.tif,alec_mairs$Non$67.png,0,0,16
alec_mairs,20161030_011625_0e1f_visual.tif,alec_mairs$Non$75.png,0,0,16
alec_mairs,20161101_011634_0e0e_visual.tif,alec_mairs$Non$77.png,0,0,16
alec_mairs,20161102_084018_0c44_visual.tif,alec_mairs$Non$78.png,0,0,16
alec_mairs,20161103_080212_0d05_visual.tif,alec_mairs$Non$79.png,0,0,16
alec_mairs,20161103_080229_1_0c82_visual.tif,alec_mairs$Non$80.png,0,0,16
alec_mairs,20161112_042935_1_0c81_visual.tif,alec_mairs$Non$81.png,0,0,16
alec_mairs,20161124_000221_0c56_visual.tif,alec_mairs$Non$88.png,0,0,16
alec_mairs,20161124_000304_0c44_visual.tif,alec_mairs$Non$89.png,0,0,16
antamina_mine,20150820_145242_0b09_visual.tif,antamina_mine$Non$01.png,0,0,16
antamina_mine,20160102_212655_0c07_visual.tif,antamina_mine$Non$04.png,0,0,16
antamina_mine,20160109_184130_1_0b07_visual.tif,antamina_mine$Non$07.png,0,0,16
antamina_mine,20160318_142434_0c03_visual.tif,antamina_mine$Non$15.png,0,0,16
antamina_mine,20160409_171635_0c72_visual.tif,antamina_mine$NatNon$17.png,0,2,14
antamina_mine,20160501_203300_0b0e_visual.tif,antamina_mine$NatNon$19.png,0,1,15
antamina_mine,20160501_203300_1_0b0e_visual.tif,antamina_mine$NatNon$20.png,0,1,15
antamina_mine,20160501_203301_0b0e_visual.tif,antamina_mine$Non$21.png,0,0,16
antamina_mine,20160503_194434_0b09_visual.tif,antamina_mine$Non$23.png,0,0,16
antamina_mine,20160806_143448_0e19_visual.tif,antamina_mine$NatNon$36.png,0,3,13
antamina_mine,20160806_143449_0e19_visual.tif,antamina_mine$NatNon$37.png,0,6,10
antamina_mine,20160902_204515_0c13_visual.tif,antamina_mine$NatNon$45.png,0,1,15
antamina_mine,20160907_143455_0e30_visual.tif,antamina_mine$NatNon$46.png,0,1,15
antamina_mine,20160907_143526_0e0e_visual.tif,antamina_mine$Non$48.png,0,0,16
antamina_mine,20160907_143527_0e0e_visual.tif,antamina_mine$NatNon$49.png,0,2,14
antamina_mine,20160911_143707_0e1f_visual.tif,antamina_mine$NatNon$51.png,0,1,15
antamina_mine,20160918_142726_0c81_visual.tif,antamina_mine$NatNon$53.png,0,3,13
antamina_mine,20160918_142727_0c81_visual.tif,antamina_mine$NatNon$54.png,0,3,13
antamina_mine,20161001_200828_0c46_visual.tif,antamina_mine$NatNon$57.png,0,3,13
antamina_mine,20161012_143740_0e1f_visual.tif,antamina_mine$Non$63.png,0,0,16
antamina_mine,20161013_143723_0e14_visual.tif,antamina_mine$NatNon$68.png,0,6,10
antamina_mine,20161013_143725_0e14_visual.tif,antamina_mine$Non$69.png,0,0,16
antamina_mine,20161024_143706_0e30_visual.tif,antamina_mine$NatNon$71.png,0,4,12
antamina_mine,20161109_174715_0c12_visual.tif,antamina_mine$Non$74.png,0,0,16
bethlehem_limestone_quarry,20160904_150636_0e14_visual.tif,bethlehem_limestone_quarry$Non$27.png,0,0,12
bethlehem_limestone_quarry,20160904_150637_0e14_visual.tif,bethlehem_limestone_quarry$Non$28.png,0,0,12
bethlehem_limestone_quarry,20161014_180953_0d06_visual.tif,bethlehem_limestone_quarry$Non$34.png,0,0,12
bethlehem_limestone_quarry,20161016_172557_0c75_visual.tif,bethlehem_limestone_quarry$Non$36.png,0,0,12
bethlehem_limestone_quarry,20161016_172558_0c75_visual.tif,bethlehem_limestone_quarry$NatNon$37.png,0,7,5
bethlehem_limestone_quarry,20161021_150657_0e14_visual.tif,bethlehem_limestone_quarry$Non$40.png,0,0,12
bingham,20150831_222240_0b0a_visual.tif,bingham$NatNon$13.png,0,1,11
bingham,20151108_184619_0c07_visual.tif,bingham$Non$21.png,0,0,12
bingham,20151108_184620_0c07_visual.tif,bingham$HumNon$22.png,1,0,11
bingham,20161002_172812_0e1f_visual.tif,bingham$Non$52.png,0,0,12
bingham,20161013_205636_0c37_visual.tif,bingham$Non$57.png,0,0,12
bronzewing_group,20151127_085629_1_0b0a_visual.tif,bronzewing_group$Non$05.png,0,0,16
bronzewing_group,20160314_042544_0b09_visual.tif,bronzewing_group$NatNon$23.png,0,1,15
bronzewing_group,20160315_042715_0c47_visual.tif,bronzewing_group$Non$26.png,0,0,16
bronzewing_group,20160517_024727_0c66_visual.tif,bronzewing_group$NatNon$31.png,0,2,14
bronzewing_group,20160807_040711_0c59_visual.tif,bronzewing_group$Non$40.png,0,0,16
bronzewing_group,20160927_223515_0c22_visual.tif,bronzewing_group$Non$55.png,0,0,16
bronzewing_group,20161001_061245_0c0b_visual.tif,bronzewing_group$Non$57.png,0,0,16
bronzewing_group,20161001_061246_0c0b_visual.tif,bronzewing_group$HumNon$58.png,1,0,15
cementera,20161008_171328_0e0f_visual.tif,cementera$Non$103.png,0,0,12
cementera,20151223_172024_0c47_visual.tif,cementera$HumNon$17.png,1,0,11
cementera,20160423_001225_1_0b0a_visual.tif,cementera$Non$37.png,0,0,12
cementera,20160617_012300_0b0a_visual.tif,cementera$Non$41.png,0,0,12
cementera,20160625_224334_0c74_visual.tif,cementera$NatNon$46.png,0,1,11
cementera,20160714_164752_0c75_visual.tif,cementera$Non$50.png,0,0,12
cementera,20160714_164829_0c43_visual.tif,cementera$Non$52.png,0,0,12
cementera,20160714_164830_0c43_visual.tif,cementera$HumNon$53.png,1,0,11
cementera,20160722_171030_0e3a_visual.tif,cementera$Non$58.png,0,0,12
cementera,20160802_171102_0e30_visual.tif,cementera$Non$64.png,0,0,12
cementera,20160802_171106_0e26_visual.tif,cementera$HumNon$66.png,1,0,11
cementera,20160812_171105_0e3a_visual.tif,cementera$NatNon$72.png,0,2,10
cementera,20160914_160048_0c24_visual.tif,cementera$Non$88.png,0,0,12
copperopolis_quarry,20150627_183357_0906_visual.tif,copperopolis_quarry$Non$07.png,0,0,12
copperopolis_quarry,20150826_183911_0906_visual.tif,copperopolis_quarry$Non$15.png,0,0,12
copperopolis_quarry,20160908_181523_0d05_visual.tif,copperopolis_quarry$Non$56.png,0,0,12
copperopolis_quarry,20160909_175227_0c75_visual.tif,copperopolis_quarry$Non$57.png,0,0,12
dalni,20160422_065348_0c64_visual.tif,dalni$NatNon$11.png,0,1,11
dalni,20160806_111830_0c68_visual.tif,dalni$Non$35.png,0,0,12
dalni,20160813_104202_1_0d06_visual.tif,dalni$Non$42.png,0,0,12
dalni,20160824_061926_0c59_visual.tif,dalni$Non$45.png,0,0,12
dalni,20160824_061927_0c59_visual.tif,dalni$Non$46.png,0,0,12
dalni,20160825_055324_0c78_visual.tif,dalni$Non$47.png,0,0,12
dalni,20160829_072724_0c42_visual.tif,dalni$Non$59.png,0,0,12
dalni,20160903_022436_0c13_visual.tif,dalni$Non$66.png,0,0,12
dalni,20160904_015852_0c65_visual.tif,dalni$Non$68.png,0,0,12
dalni,20160904_015853_0c65_visual.tif,dalni$Non$69.png,0,0,12
dalni,20160905_050500_0e16_visual.tif,dalni$Non$72.png,0,0,12
dalni,20160905_050726_0e1f_visual.tif,dalni$Non$74.png,0,0,12
edna_may_westonia,20141222_030559_0907_visual.tif,edna_may_westonia$Non$05.png,0,0,12
edna_may_westonia,20160123_094420_0b09_visual.tif,edna_may_westonia$Non$28.png,0,0,12
edna_may_westonia,20160123_094420_1_0b09_visual.tif,edna_may_westonia$Non$29.png,0,0,12
edna_may_westonia,20160128_000249_0c64_visual.tif,edna_may_westonia$Non$31.png,0,0,12
edna_may_westonia,20160128_000251_0c64_visual.tif,edna_may_westonia$Non$32.png,0,0,12
edna_may_westonia,20160908_011851_0e0d_visual.tif,edna_may_westonia$NatNon$45.png,0,2,10
edna_may_westonia,20160908_011852_0e0d_visual.tif,edna_may_westonia$NatNon$46.png,0,6,6
edna_may_westonia,20160919_075537_1_0c74_visual.tif,edna_may_westonia$Non$53.png,0,0,12
edna_may_westonia,20161015_012144_0e20_visual.tif,edna_may_westonia$Non$73.png,0,0,12
edna_may_westonia,20161016_012129_0e30_visual.tif,edna_may_westonia$Non$77.png,0,0,12
frances_creek,20150412_043806_0823_visual.tif,frances_creek$Non$00.png,0,0,16
frances_creek,20151118_022941_0c68_visual.tif,frances_creek$HumNon$01.png,2,0,14
frances_creek,20151118_022942_0c68_visual.tif,frances_creek$Non$02.png,0,0,16
frances_creek,20160102_081753_0c66_visual.tif,frances_creek$NatNon$10.png,0,11,5
frances_creek,20160119_011604_0b09_visual.tif,frances_creek$Non$14.png,0,0,16
frances_creek,20160205_051428_0c72_visual.tif,frances_creek$NatNon$18.png,0,2,14
frances_creek,20160205_051430_0c72_visual.tif,frances_creek$Non$19.png,0,0,16
frances_creek,20160206_044825_0c18_visual.tif,frances_creek$NatNon$21.png,0,4,12
frances_creek,20160307_060936_0c74_visual.tif,frances_creek$Non$27.png,0,0,16
frances_creek,20160329_074153_0c18_visual.tif,frances_creek$NatNon$34.png,0,3,13
frances_creek,20160603_045117_0c64_visual.tif,frances_creek$NatNon$39.png,0,4,12
frances_creek,20160714_031915_1_0c59_visual.tif,frances_creek$Non$45.png,0,0,16
frances_creek,20160722_234716_0c46_visual.tif,frances_creek$Non$55.png,0,0,16
frances_creek,20160905_060521_0c42_visual.tif,frances_creek$Non$66.png,0,0,16
frances_creek,20160905_060522_0c42_visual.tif,frances_creek$Non$67.png,0,0,16
frances_creek,20160908_045223_0c79_visual.tif,frances_creek$Non$68.png,0,0,16
frances_creek,20160908_045224_0c79_visual.tif,frances_creek$Non$69.png,0,0,16
frances_creek,20160908_045402_0c27_visual.tif,frances_creek$Non$70.png,0,0,16
frances_creek,20160917_012148_0c65_visual.tif,frances_creek$NatNon$73.png,0,5,11
frances_creek,20161004_050234_0c46_visual.tif,frances_creek$NatNon$80.png,0,6,10
frances_creek,20161014_010656_0c59_visual.tif,frances_creek$Non$87.png,0,0,16
frances_creek,20161014_010657_1_0c59_visual.tif,frances_creek$Non$89.png,0,0,16
frances_creek,20161031_004041_0e2f_visual.tif,frances_creek$NatNon$93.png,0,5,11
frances_creek,20161031_004042_0e2f_visual.tif,frances_creek$Non$94.png,0,0,16
greenbushes,20151130_234601_0c72_visual.tif,greenbushes$NatNon$06.png,0,3,13
greenbushes,20160125_085011_0b0b_visual.tif,greenbushes$Non$20.png,0,0,16
greenbushes,20160125_085012_0b0b_visual.tif,greenbushes$NatNon$21.png,0,3,13
greenbushes,20160317_043355_0c68_visual.tif,greenbushes$NatNon$34.png,0,12,4
greenbushes,20160514_045236_0c18_visual.tif,greenbushes$NatNon$41.png,0,8,8
greenbushes,20160514_045238_0c18_visual.tif,greenbushes$NatNon$42.png,0,3,13
greenbushes,20160710_052447_1_0c73_visual.tif,greenbushes$NatNon$45.png,0,8,8
greenbushes,20160903_012815_0e20_visual.tif,greenbushes$HumNon$52.png,1,0,15
ione_pit_and_mill,20150916_165347_0b0d_visual.tif,ione_pit_and_mill$Non$08.png,0,0,12
ione_pit_and_mill,20151225_184606_0906_visual.tif,ione_pit_and_mill$Non$15.png,0,0,12
ione_pit_and_mill,20160414_211030_0c72_visual.tif,ione_pit_and_mill$Non$22.png,0,0,12
ione_pit_and_mill,20160414_211032_0c72_visual.tif,ione_pit_and_mill$HumNon$23.png,1,0,11
ione_pit_and_mill,20161010_180206_0e16_visual.tif,ione_pit_and_mill$Non$72.png,0,0,12
johnson_camp,20140928_173516_0908_visual.tif,johnson_camp$Non$00.png,0,0,16
johnson_camp,20140928_173517_0908_visual.tif,johnson_camp$HumNon$01.png,1,0,15
johnson_camp,20160809_215852_0c13_visual.tif,johnson_camp$Non$35.png,0,0,16
johnson_camp,20160828_143033_0c46_visual.tif,johnson_camp$Non$37.png,0,0,16
johnson_camp,20160828_143034_0c46_visual.tif,johnson_camp$NatNon$38.png,0,1,15
jundee-nimary,20160923_003111_0c65_visual.tif,jundee-nimary$Non$14.png,0,0,16
jundee-nimary,20161014_011647_0e16_visual.tif,jundee-nimary$Non$60.png,0,0,16
mining,20141204_073738_0811_visual_cropped.tif,mining$Non$00.png,0,0,759
mining,20141204_073739_0811_visual_cropped.tif,mining$Non$01.png,0,0,759
mining,20150814_031327_0b09_visual_cropped.tif,mining$Non$03.png,0,0,759
mining,20151201_074112_1_0c70_visual_cropped.tif,mining$Non$07.png,0,0,759
mining,20151201_074113_0c70_visual_cropped.tif,mining$Non$08.png,0,0,759
mining,20151207_051907_0c72_visual_cropped.tif,mining$HumNon$10.png,12,0,747
mining,20151209_042940_0c47_visual_cropped.tif,mining$HumNon$11.png,3,0,756
mining,20151209_042942_0c47_visual_cropped.tif,mining$HumNon$12.png,40,0,719
mining,20151211_032821_0b07_visual_cropped.tif,mining$HumNon$13.png,7,0,752
mining,20151211_032822_0b07_visual_cropped.tif,mining$HumNon$14.png,3,0,756
mining,20151212_030544_0b09_visual_cropped.tif,mining$HumNon$15.png,1,0,758
mining,20151212_030547_0b0a_visual_cropped.tif,mining$Non$17.png,0,0,759
mining,20151214_021707_0b0e_visual_cropped.tif,mining$HumNon$18.png,4,0,755
mining,20151224_221553_0c66_visual_cropped.tif,mining$NatNon$20.png,0,469,290
mining,20160128_082055_0c68_visual_cropped.tif,mining$Non$24.png,0,0,759
mining,20160128_082057_0c68_visual_cropped.tif,mining$Non$25.png,0,0,759
mining,20160131_070715_0c47_visual_cropped.tif,mining$NatNon$26.png,0,330,429
mining,20160203_055409_0c66_visual_cropped.tif,mining$HumNon$28.png,20,0,739
mining,20160218_000202_0c18_visual_cropped.tif,mining$HumNon$31.png,10,0,749
mining,20160308_071412_0c73_visual_cropped.tif,mining$Non$32.png,0,0,759
mining,20160310_060033_0b09_visual_cropped.tif,mining$Non$35.png,0,0,759
mining,20160310_060034_0b09_visual_cropped.tif,mining$HumNon$36.png,6,0,753
mining,20160315_042658_0c47_visual_cropped.tif,mining$Non$38.png,0,0,759
mining,20160402_060626_0c53_visual_cropped.tif,mining$Non$40.png,0,0,759
mining,20160404_051759_0c68_visual_cropped.tif,mining$HumNatNon$41.png,2,204,553
mining,20160407_040647_0c72_visual_cropped.tif,mining$NatNon$42.png,0,429,330
mining,20160407_040649_0c72_visual_cropped.tif,mining$NatNon$43.png,0,551,208
mining,20160430_083320_0c03_visual_cropped.tif,mining$NatNon$44.png,0,194,565
mining,20160515_033847_0c18_visual_cropped.tif,mining$Non$46.png,0,0,759
mining,20160717_015519_0c74_visual_cropped.tif,mining$Non$48.png,0,0,759
mining,20160717_015520_0c74_visual_cropped.tif,mining$HumNon$49.png,12,0,747
mining,20160731_065821_0c65_visual_cropped.tif,mining$Non$50.png,0,0,759
mining,20160824_011631_0e20_visual_cropped.tif,mining$HumNon$52.png,20,0,739
